[
 {
  "allow_on_submit": 0, 
  "bold": 0, 
  "collapsible": 0, 
  "collapsible_depends_on": null, 
  "columns": 0, 
  "default": null, 
  "depends_on": null, 
  "description": null, 
  "docstatus": 0, 
  "doctype": "Custom Field", 
  "dt": "Sales Invoice", 
  "fieldname": "x_sales_entry", 
  "fieldtype": "Link", 
  "hidden": 1, 
  "ignore_user_permissions": 0, 
  "ignore_xss_filter": 0, 
  "in_global_search": 0, 
  "in_list_view": 0, 
  "in_standard_filter": 0, 
  "insert_after": "against_income_account", 
  "label": "X Sales Entry", 
  "modified": "2018-01-20 12:07:09.968150", 
  "name": "Sales Invoice-x_sales_entry", 
  "no_copy": 0, 
  "options": "Sales Entry", 
  "permlevel": 0, 
  "precision": "", 
  "print_hide": 0, 
  "print_hide_if_no_value": 0, 
  "print_width": null, 
  "read_only": 1, 
  "report_hide": 0, 
  "reqd": 0, 
  "search_index": 0, 
  "unique": 0, 
  "width": null
 }
]